{
    "datas": [
        {
            "child": [],
            "content": "组图：OMG主场不敌JDG 现场小姐姐表情失落",
            "id": 1,
            "name": "体育新闻3"
        },
        {
            "child": [],
            "content": "范冰冰送护肤品给古力娜扎，网友：不如帮她介绍男朋友",
            "id": 2,
            "name": "娱乐新闻3"
        },
        {
            "child": [],
            "content": "美英法对叙利亚开战，这些细节值得关注",
            "id": 3,
            "name": "时政新闻3"
        }
    ],
    "pageNumber": 1,
    "pageSize": 3,
    "pageStartIndex": 0,
    "totalPages": 8,
    "totalRows": 22
}