{
    "datas": [
        {
            "child": [],
            "content": "女友亲手制作蛋糕为姿态加油 秀恩爱甜炸了！",
            "id": 1,
            "name": "体育新闻4"
        },
        {
            "child": [],
            "content": "林志颖一家四口同台现身 双胞胎儿子萌爆了",
            "id": 2,
            "name": "娱乐新闻3"
        },
        {
            "child": [],
            "content": "解析军事打击叙利亚：美英法迫不及待 各有算盘",
            "id": 3,
            "name": "时政新闻3"
        }
    ],
    "pageNumber": 1,
    "pageSize": 3,
    "pageStartIndex": 0,
    "totalPages": 8,
    "totalRows": 22
}