{
    "datas": [
        {
            "child": [],
            "content": "安掌门病愈归来谈LCK形势：顶级强队很容易翻车",
            "id": 1,
            "name": "体育新闻2"
        },
        {
            "child": [],
            "content": "一线丨第37届金像奖红毯名单揭晓 成龙阿米尔汗刘德华赵薇亮相",
            "id": 2,
            "name": "娱乐新闻2"
        },
        {
            "child": [],
            "content": "侠客岛：为什么中央选择了海南？",
            "id": 3,
            "name": "时政新闻2"
        }
    ],
    "pageNumber": 1,
    "pageSize": 3,
    "pageStartIndex": 0,
    "totalPages": 8,
    "totalRows": 22
}