{
    "datas": [
        {
            "child": [],
            "content": "CoreJJ：塔里克出女神泪能补伤害 “4K”是韩国最强",
            "id": 1,
            "name": "体育新闻1"
        },
        {
            "child": [],
            "content": "蔡徐坤晒出抽烟照 粉丝强行洗白令人尴尬",
            "id": 2,
            "name": "娱乐新闻1"
        },
        {
            "child": [],
            "content": "联合国秘书长呼吁避免任何使叙人民遭受苦难的行为",
            "id": 3,
            "name": "时政新闻1"
        }
    ],
    "pageNumber": 1,
    "pageSize": 3,
    "pageStartIndex": 0,
    "totalPages": 8,
    "totalRows": 22
}