{
    "datas":
        [
            {
                "child":[],
                "content":"体育新闻体育新闻体育新闻1",
                "id":1,
                "name":"体育新闻1",
                "parent":null
            },
            {
                "child":[],
                "content":"娱乐新闻娱乐新闻娱乐新闻1",
                "id":2,
                "name":"娱乐新闻2",
                "parent":null
            },
            {
                "child":[],
                "content":"时政新闻时政新闻时政新闻1",
                "id":3,"name":"时政新闻3",
                "parent":null
            }
        ],
    "pageNumber":1,
    "pageSize":3,
    "pageStartIndex":0,
    "totalPages":8,
    "totalRows":22
}
